\relax 
\citation{adomavicius2005toward}
\citation{bennett2007netflix}
\citation{balabanovic1997fab}
\citation{sarwar2001item}
\citation{Fouss}
\citation{Gori}
\citation{lee2011random}
\citation{lee2013pathrank}
\citation{PathSim}
\@writefile{toc}{\contentsline {section}{\numberline {I}Introduction}{1}}
\@writefile{lof}{\contentsline {figure}{\numberline {1}{\ignorespaces Overview of PRECOS: A user's movie selection behaviors (e.g., searching, browsing, rating) are captured by PRECOS system and exploited for later movie recommendation }}{1}}
\newlabel{fig:overview}{{1}{1}}
\citation{HetRec2011}
\citation{neo4j2013}
\@writefile{toc}{\contentsline {section}{\numberline {II}PRECOS:System Architecture and Functionalities}{2}}
\@writefile{toc}{\contentsline {subsection}{\numberline {\unhbox \voidb@x \hbox {II-A}}System Architecture}{2}}
\@writefile{lof}{\contentsline {figure}{\numberline {2}{\ignorespaces The Three Layer Architecture of PRECOS: Bootstrap framework (http://getbootstrap.com), Tornado Web Server (http://www.tornadoweb.org) , Neo4j Graph Database (http://www.neo4j.org/) were mainly used for implementation of \textit  {User Interface Layer}, \textit  {Data Processing Layer}, and \textit  {Database Layer respectively.}}}{2}}
\newlabel{fig:overview}{{2}{2}}
\@writefile{toc}{\contentsline {subsection}{\numberline {\unhbox \voidb@x \hbox {II-B}}Functionalities}{2}}
\@writefile{lof}{\contentsline {figure}{\numberline {3}{\ignorespaces The User Interface of PRECOS; (A) Menu Bar (B) Movie Browser, (C) Search box, (D) Navigation Menu, (E) Recommendation Menu}}{3}}
\newlabel{fig:gui}{{3}{3}}
\@writefile{lof}{\contentsline {figure}{\numberline {4}{\ignorespaces Whenever a user reached at a set of movies (B) by doing a sequence of movie selection activities, PRECOS tracks and shows the user's current movie selection history as a path schema (A). Once the user gives high ratings to a movie among the current set of movies in the browser, the path is stored in the \textit  {Path Database}.}}{3}}
\newlabel{fig:path-navigation}{{4}{3}}
\bibstyle{IEEEtran}
\bibdata{IEEEexample}
\bibcite{adomavicius2005toward}{1}
\bibcite{bennett2007netflix}{2}
\bibcite{balabanovic1997fab}{3}
\bibcite{sarwar2001item}{4}
\bibcite{Fouss}{5}
\bibcite{Gori}{6}
\bibcite{lee2011random}{7}
\bibcite{lee2013pathrank}{8}
\bibcite{PathSim}{9}
\bibcite{neo4j2013}{10}
\bibcite{HetRec2011}{11}
\@writefile{lof}{\contentsline {figure}{\numberline {5}{\ignorespaces An Example of path-based recommendation: (A) is the path schema exploited for emulating the user's movie selection browser (B) is the recommendation results generated by PRECOS, in other words, movies that could be found by emulating user's browsing activity using the path schema}}{4}}
\newlabel{fig:myprofile}{{5}{4}}
\@writefile{toc}{\contentsline {section}{\numberline {III}Demonstration Plan}{4}}
\@writefile{toc}{\contentsline {section}{References}{4}}
